HBond Monitors:
(y/n indicates whether criteria specified have been met)

Donor          Acceptor       Distance  Angle   OK
ERK2:17:HN     ERK2:10:O         1.91   159.13    y
ERK2:12:HN     ERK2:15:O         1.90   154.76    y
ERK2:15:HN     ERK2:12:O         1.98   152.29    y
ERK2:53:HZ3    ERK2:16:O         1.85   128.01    y
ERK2:19:HN     ERK2:17:O         2.13   125.81    y
ERK2:18:HN     ERK2:100:OH       2.22   136.25    y
ERK2:22:HE     ERK2:42:OD1       1.79   165.56    y
ERK2:22:HH21   ERK2:42:OD2       2.13   138.00    y
ERK2:43:HN     ERK2:22:O         1.80   168.92    y
ERK2:43:HD22   ERK2:22:O         1.98   151.24    y
ERK2:24:HN     ERK2:41:O         2.07   163.90    y
ERK2:43:HD21   ERK2:24:OG1       2.04   153.15    y
ERK2:41:HN     ERK2:24:O         1.63   178.14    y
ERK2:48:HH12   ERK2:25:O         2.24   149.57    y
ERK2:48:HH22   ERK2:25:O         2.25   149.27    y
ERK2:27:HN     ERK2:39:O         2.17   135.90    y
ERK2:39:HN     ERK2:27:O         1.85   162.73    y
ERK2:29:HN     ERK2:37:O         1.75   168.34    y
ERK2:37:HN     ERK2:30:O         1.71   153.96    y
ERK2:32:HN     ERK2:35:O         1.75   149.50    y
ERK2:55:HN     ERK2:34:O         2.21   149.57    y
ERK2:53:HN     ERK2:36:O         2.02   163.90    y
ERK2:38:HN     ERK2:51:O         1.80   172.34    y
ERK2:51:HN     ERK2:38:O         1.61   166.17    y
ERK2:48:HH21   ERK2:39:OG        1.78   151.37    y
ERK2:40:HN     ERK2:49:O         1.98   152.99    y
ERK2:49:HN     ERK2:40:O         1.82   159.95    y
ERK2:42:HN     ERK2:47:O         1.81   155.46    y
ERK2:44:HN     ERK2:42:OD1       2.02   153.81    y
ERK2:45:HN     ERK2:42:OD1       2.41   164.03    y
ERK2:45:HD22   ERK2:42:OD2       2.00   136.27    y
ERK2:46:HN     ERK2:42:O         1.99   124.58    y
ERK2:46:HZ1    ERK2:44:O         2.31   145.33    y
ERK2:50:HN     ERK2:103:O        1.81   165.69    y
ERK2:103:HN    ERK2:50:O         1.75   174.10    y
ERK2:52:HN     ERK2:101:O        2.00   162.21    y
ERK2:52:HZ2    ERK2:69:OE1       2.46   150.65    y
ERK2:101:HN    ERK2:52:O         2.02   160.46    y
ERK2:54:HN     ERK2:99:O         1.77   151.23    y
ERK2:99:HN     ERK2:54:O         1.91   145.82    y
ERK2:59:HN     ERK2:56:O         2.20   159.63    y
ERK2:63:HN     ERK2:59:O         2.41   148.85    y
ERK2:60:HE21   ERK2:64:OE1       2.40   148.51    y
ERK2:60:HE22   ERK2:336:O        1.63   147.30    y
ERK2:64:HN     ERK2:60:O         1.99   154.50    y
ERK2:65:HN     ERK2:61:O         2.07   157.79    y
ERK2:66:HN     ERK2:62:O         2.05   142.34    y
ERK2:66:HG1    ERK2:62:O         1.79   148.24    y
ERK2:67:HN     ERK2:63:O         1.95   160.80    y
ERK2:64:HE21   ERK2:335:OD1      2.15   152.24    y
ERK2:64:HE22   ERK2:334:OD1      2.44   122.56    y
ERK2:68:HN     ERK2:64:O         2.06   158.85    y
ERK2:69:HN     ERK2:65:O         2.15   174.66    y
ERK2:70:HN     ERK2:66:O         2.10   160.17    y
ERK2:71:HN     ERK2:67:O         1.91   174.64    y
ERK2:68:HE     ERK2:334:OD2      2.25   131.25    y
ERK2:68:HH12   ERK2:183:O3P      1.72   145.49    y
ERK2:68:HH22   ERK2:183:O1P      2.26   174.56    y
ERK2:72:HN     ERK2:68:O         1.94   166.55    y
ERK2:166:HN    ERK2:69:OE2       2.14   144.65    y
ERK2:73:HN     ERK2:69:O         2.03   157.48    y
ERK2:74:HN     ERK2:70:O         2.07   138.96    y
ERK2:75:HN     ERK2:71:O         2.48   137.19    y
ERK2:75:HN     ERK2:72:O         2.20   136.25    y
ERK2:76:HN     ERK2:72:O         2.00   165.23    y
ERK2:75:HH11   ERK2:325:O        2.31   148.27    y
ERK2:77:HE     ERK2:75:O         2.35   135.78    y
ERK2:137:HH    ERK2:77:N         2.33   144.21    y
ERK2:77:HN     ERK2:137:OH       2.21   168.29    y
ERK2:324:HN    ERK2:77:NH2       2.33   145.09    y
ERK2:77:HH22   ERK2:324:N        2.28   153.73    y
ERK2:81:HN     ERK2:78:O         2.36   146.91    y
ERK2:79:HN     ERK2:79:OE1       2.06   145.24    y
ERK2:133:HH12  ERK2:79:OE1       2.30   151.72    y
ERK2:133:HH11  ERK2:80:OD1       1.80   155.34    y
ERK2:80:HD22   ERK2:161:O        2.27   150.44    y
ERK2:163:HN    ERK2:80:O         1.87   170.56    y
ERK2:82:HN     ERK2:163:O        1.80   174.76    y
ERK2:103:HE22  ERK2:83:O         2.10   152.10    y
ERK2:85:HN     ERK2:102:O        1.71   156.08    y
ERK2:85:HD21   ERK2:104:OD1      1.90   177.81    y
ERK2:87:HN     ERK2:86:OD1       2.03   130.44    y
ERK2:102:HN    ERK2:86:O         1.89   169.61    y
ERK2:88:HN     ERK2:100:O        1.83   162.04    y
ERK2:100:HN    ERK2:88:O         1.82   162.16    y
ERK2:89:HE     ERK2:349:OG1      1.85   171.90    y
ERK2:89:HH11   ERK2:90:O         1.91   162.29    y
ERK2:89:HH21   ERK2:350:N        2.37   132.63    y
ERK2:92:HN     ERK2:95:NE2       2.29   143.00    y
ERK2:95:HN     ERK2:92:O         2.47   121.53    y
ERK2:96:HN     ERK2:92:O         2.44   129.44    y
ERK2:96:HN     ERK2:93:O         2.40   133.66    y
ERK2:94:HN     ERK2:94:OE1       2.31   142.21    y
ERK2:97:HZ2    ERK2:94:O         2.13   141.63    y
ERK2:108:HN    ERK2:155:O        1.89   173.22    y
ERK2:109:HN    ERK2:108:OG1      1.90   130.46    y
ERK2:155:HN    ERK2:108:O        1.72   158.02    y
ERK2:112:HN    ERK2:109:OD1      1.89   167.50    y
ERK2:113:HN    ERK2:109:O        2.03   155.61    y
ERK2:110:HN    ERK2:153:O        2.00   153.52    y
ERK2:114:HN    ERK2:110:O        1.96   170.45    y
ERK2:115:HN    ERK2:112:O        2.40   138.62    y
ERK2:116:HN    ERK2:113:O        1.94   155.65    y
ERK2:117:HN    ERK2:113:O        1.95   130.01    y
ERK2:222:HD22  ERK2:114:O        2.10   141.29    y
ERK2:117:HE22  ERK2:118:O        2.23   141.63    y
ERK2:222:HD21  ERK2:117:O        1.58   145.29    y
ERK2:123:HN    ERK2:120:OG       2.42   149.27    y
ERK2:123:ND1   ERK2:120:OG       2.84      NA     y
ERK2:120:HG    ERK2:123:ND1      2.10   126.80    y
ERK2:123:HN    ERK2:120:O        2.24   125.14    y
ERK2:124:HN    ERK2:120:O        2.15   166.91    y
ERK2:125:HN    ERK2:121:O        2.03   159.97    y
ERK2:126:HN    ERK2:122:O        2.18   151.95    y
ERK2:127:HN    ERK2:123:O        1.84   155.99    y
ERK2:128:HN    ERK2:124:O        1.96   154.11    y
ERK2:129:HN    ERK2:125:O        2.11   155.34    y
ERK2:130:HN    ERK2:126:O        2.28   151.85    y
ERK2:131:HN    ERK2:127:O        2.11   158.45    y
ERK2:132:HN    ERK2:128:O        2.08   168.43    y
ERK2:133:HN    ERK2:129:O        1.91   149.22    y
ERK2:161:HN    ERK2:130:OE1      1.89   160.55    y
ERK2:130:HE21  ERK2:159:O        1.97   169.49    y
ERK2:134:HN    ERK2:130:O        2.09   150.36    y
ERK2:135:HN    ERK2:131:O        1.87   137.80    y
ERK2:136:HN    ERK2:132:O        1.95   141.89    y
ERK2:133:HE    ERK2:319:O        2.15   143.90    y
ERK2:133:HH21  ERK2:319:O        2.04   145.60    y
ERK2:138:HN    ERK2:134:O        2.20   165.41    y
ERK2:139:HN    ERK2:135:O        1.92   166.69    y
ERK2:140:HN    ERK2:136:O        1.98   145.90    y
ERK2:140:HG    ERK2:137:O        1.71   156.13    y
ERK2:141:HN    ERK2:137:O        2.42   128.60    y
ERK2:141:HN    ERK2:138:O        2.37   138.43    y
ERK2:143:HN    ERK2:138:O        2.26   149.55    y
ERK2:139:HE2   ERK2:208:OD2      1.78   170.57    y
ERK2:142:HN    ERK2:139:O        1.94   150.48    y
ERK2:205:HZ3   ERK2:139:O        2.42   120.53    y
ERK2:323:HN    ERK2:140:OG       1.77   170.31    y
ERK2:327:HN    ERK2:141:O        2.06   155.72    y
ERK2:142:HD22  ERK2:327:O        1.93   177.56    y
ERK2:172:HN    ERK2:142:O        1.78   174.62    y
ERK2:144:HN    ERK2:170:O        1.72   170.07    y
ERK2:170:HN    ERK2:144:O        2.01   150.08    y
ERK2:145:HN    ERK2:208:OD2      2.24   144.60    y
ERK2:147:HN    ERK2:145:ND1      2.30   143.86    y
ERK2:145:HE2   ERK2:164:O        2.03   155.48    y
ERK2:146:HN    ERK2:208:OD1      2.06   151.01    y
ERK2:146:HH11  ERK2:168:O        1.96   147.66    y
ERK2:146:HH12  ERK2:183:O3P      1.95   157.83    y
ERK2:146:HH21  ERK2:203:OH       1.96   144.43    y
ERK2:146:HH22  ERK2:183:O2P      1.85   129.53    y
ERK2:146:HH22  ERK2:183:O3P      2.40   138.75    y
ERK2:152:HD22  ERK2:147:O        1.95   144.86    y
ERK2:152:HN    ERK2:149:O        2.15   139.76    y
ERK2:153:HN    ERK2:150:O        2.13   146.89    y
ERK2:164:HN    ERK2:152:O        2.14   164.96    y
ERK2:154:HN    ERK2:162:O        1.98   139.39    y
ERK2:162:HN    ERK2:154:O        1.91   155.42    y
ERK2:156:HN    ERK2:160:O        2.22   151.88    y
ERK2:158:HN    ERK2:156:OD1      2.04   152.24    y
ERK2:160:HN    ERK2:156:OD1      1.99   147.32    y
ERK2:156:HD21  ERK2:160:OD2      2.09   158.73    y
ERK2:169:HN    ERK2:166:O        2.20   145.73    y
ERK2:170:HE    ERK2:183:O2P      2.02   137.69    y
ERK2:170:HH11  ERK2:171:O        1.92   159.12    y
ERK2:170:HH21  ERK2:183:O2P      2.32   129.25    y
ERK2:173:HN    ERK2:332:OE2      1.86   166.97    y
ERK2:175:HN    ERK2:173:OD1      2.44   166.06    y
ERK2:329:HN    ERK2:173:OD2      2.42   120.88    y
ERK2:176:HN    ERK2:173:O        1.95   160.49    y
ERK2:178:HE2   ERK2:332:OE1      1.76   140.91    y
ERK2:178:HE2   ERK2:332:OE2      2.42   149.15    y
ERK2:181:HN    ERK2:178:O        1.73   158.04    y
ERK2:180:HN    ERK2:201:O        2.21   148.32    y
ERK2:183:HN    ERK2:183:O2P      1.80   158.68    y
ERK2:203:HH    ERK2:183:O        1.83   121.71    y
ERK2:186:HN    ERK2:184:O        2.36   138.36    y
ERK2:189:HE    ERK2:185:O1P      1.97   146.44    y
ERK2:192:HH22  ERK2:185:O1P      1.65   134.10    y
ERK2:189:HH21  ERK2:185:O2P      2.03   133.87    y
ERK2:192:HH11  ERK2:186:O        2.43   167.61    y
ERK2:191:HN    ERK2:188:O        1.97   149.71    y
ERK2:189:HH11  ERK2:228:O        2.30   152.52    y
ERK2:192:HN    ERK2:189:O        1.98   157.57    y
ERK2:190:HE1   ERK2:228:O        2.11   131.70    y
ERK2:211:HG    ERK2:191:O        1.86   152.45    y
ERK2:196:HN    ERK2:193:O        2.24   148.34    y
ERK2:197:HN    ERK2:194:O        2.13   151.42    y
ERK2:198:HN    ERK2:194:O        2.21   166.75    y
ERK2:195:HN    ERK2:195:OE1      1.85   155.41    y
ERK2:299:HH22  ERK2:195:OE1      2.05   161.68    y
ERK2:299:HH22  ERK2:195:OE2      1.74   124.53    y
ERK2:200:HN    ERK2:198:O        2.42   142.57    y
ERK2:202:HN    ERK2:199:O        2.16   154.26    y
ERK2:206:HN    ERK2:204:OG1      2.43   166.21    y
ERK2:207:HN    ERK2:204:O        2.19   169.72    y
ERK2:208:HN    ERK2:205:O        2.10   156.15    y
ERK2:209:HN    ERK2:206:O        2.30   123.00    y
ERK2:210:HN    ERK2:206:O        2.22   160.22    y
ERK2:299:HH21  ERK2:206:O        2.29   156.82    y
ERK2:211:HN    ERK2:207:O        2.20   166.32    y
ERK2:212:HN    ERK2:208:O        1.99   154.19    y
ERK2:213:HN    ERK2:209:O        2.03   142.78    y
ERK2:214:HN    ERK2:210:O        1.99   150.31    y
ERK2:215:HN    ERK2:211:O        2.19   139.61    y
ERK2:215:HN    ERK2:212:O        2.48   121.37    y
ERK2:216:HN    ERK2:212:O        2.02   141.91    y
ERK2:217:HN    ERK2:213:O        1.98   174.15    y
ERK2:218:HN    ERK2:214:O        2.26   146.04    y
ERK2:219:HN    ERK2:215:O        1.98   143.08    y
ERK2:220:HN    ERK2:216:O        2.20   137.95    y
ERK2:220:HN    ERK2:217:O        2.46   128.00    y
ERK2:221:HN    ERK2:217:O        2.34   137.58    y
ERK2:222:HN    ERK2:218:O        2.01   129.82    y
ERK2:228:HN    ERK2:226:O        2.05   140.34    y
ERK2:234:HE21  ERK2:226:O        2.22   143.83    y
ERK2:228:HN    ERK2:234:OE1      2.27   124.50    y
ERK2:229:HN    ERK2:233:OD2      1.93   159.06    y
ERK2:233:HN    ERK2:230:NE2      2.39   131.59    y
ERK2:234:HN    ERK2:230:O        1.74   154.64    y
ERK2:236:HN    ERK2:232:O        2.08   149.62    y
ERK2:237:HN    ERK2:233:O        1.83   149.88    y
ERK2:238:HN    ERK2:234:O        2.25   144.56    y
ERK2:239:HN    ERK2:235:O        2.03   158.67    y
ERK2:240:HN    ERK2:236:O        2.09   128.03    y
ERK2:242:HN    ERK2:238:O        1.92   162.17    y
ERK2:243:HN    ERK2:239:O        2.13   122.71    y
ERK2:271:HN    ERK2:241:O        1.98   138.19    y
ERK2:244:HN    ERK2:268:O        2.07   150.70    y
ERK2:268:HN    ERK2:244:OG       2.37   142.84    y
ERK2:246:HG    ERK2:249:OD2      2.23   166.10    y
ERK2:249:HN    ERK2:246:O        2.19   147.62    y
ERK2:250:HN    ERK2:246:O        2.22   167.88    y
ERK2:251:HN    ERK2:247:O        2.23   158.80    y
ERK2:253:HN    ERK2:250:O        2.27   150.40    y
ERK2:259:HE    ERK2:250:O        1.92   150.67    y
ERK2:259:HH21  ERK2:251:O        2.07   155.16    y
ERK2:259:HN    ERK2:255:O        2.01   170.63    y
ERK2:260:HN    ERK2:256:O        2.04   141.69    y
ERK2:261:HN    ERK2:257:O        1.96   153.75    y
ERK2:262:HN    ERK2:258:O        2.14   168.15    y
ERK2:263:HN    ERK2:259:O        2.30   144.78    y
ERK2:264:HN    ERK2:260:O        2.00   150.92    y
ERK2:265:HN    ERK2:263:O        2.33   121.84    y
ERK2:270:HZ2   ERK2:289:OD1      2.43   134.95    y
ERK2:275:HN    ERK2:272:O        1.98   151.57    y
ERK2:273:HE1   ERK2:289:OD1      1.93   146.66    y
ERK2:276:HN    ERK2:273:O        2.30   126.11    y
ERK2:277:HN    ERK2:273:O        1.92   149.50    y
ERK2:279:HN    ERK2:279:OD1      1.93   133.71    y
ERK2:283:HN    ERK2:281:OD1      1.86   145.90    y
ERK2:285:HN    ERK2:281:O        2.27   145.16    y
ERK2:286:HN    ERK2:282:O        2.34   132.05    y
ERK2:286:HN    ERK2:283:O        2.35   126.38    y
ERK2:287:HN    ERK2:283:O        1.94   177.67    y
ERK2:288:HN    ERK2:284:O        2.00   141.61    y
ERK2:289:HN    ERK2:285:O        2.11   150.09    y
ERK2:308:HE2   ERK2:286:OD2      1.92   156.20    y
ERK2:290:HN    ERK2:286:O        2.00   154.60    y
ERK2:291:HN    ERK2:287:O        2.20   129.94    y
ERK2:291:HN    ERK2:288:O        2.27   129.61    y
ERK2:292:HN    ERK2:288:O        1.95   152.70    y
ERK2:293:HG1   ERK2:289:O        2.42   143.76    y
ERK2:300:HN    ERK2:290:O        2.11   175.70    y
ERK2:299:HH11  ERK2:293:O        1.68   157.62    y
ERK2:298:HN    ERK2:295:O        2.38   128.47    y
ERK2:299:HN    ERK2:295:O        2.44   122.05    y
ERK2:301:HN    ERK2:304:NE2      2.03   168.59    y
ERK2:304:HN    ERK2:301:O        2.10   124.21    y
ERK2:305:HN    ERK2:301:O        1.81   156.28    y
ERK2:306:HN    ERK2:302:O        2.30   141.40    y
ERK2:303:HN    ERK2:303:OE1      2.46   137.39    y
ERK2:308:HN    ERK2:305:O        2.45   150.95    y
ERK2:310:HN    ERK2:308:ND1      2.10   175.39    y
ERK2:311:HN    ERK2:308:O        2.24   148.39    y
ERK2:312:HN    ERK2:309:O        2.04   163.23    y
ERK2:314:HN    ERK2:311:O        1.88   158.17    y
ERK2:315:HN    ERK2:311:O        1.78   162.96    y
ERK2:316:HN    ERK2:320:OE2      1.91   162.90    y
ERK2:319:HN    ERK2:316:O        1.88   153.59    y
ERK2:331:HN    ERK2:328:O        2.20   155.94    y
ERK2:332:HN    ERK2:329:O        1.86   148.92    y
ERK2:334:HN    ERK2:332:O        2.42   138.78    y
ERK2:336:HN    ERK2:334:O        1.79   145.11    y
ERK2:341:HN    ERK2:337:O        2.10   163.85    y
ERK2:342:HN    ERK2:338:O        2.06   143.88    y
ERK2:339:HN    ERK2:339:OE1      2.07   143.95    y
ERK2:343:HN    ERK2:339:O        2.44   147.41    y
ERK2:344:HN    ERK2:340:O        2.15   147.88    y
ERK2:345:HN    ERK2:341:O        1.93   159.68    y
ERK2:346:HN    ERK2:342:O        2.04   139.08    y
ERK2:347:HN    ERK2:343:O        2.09   145.75    y
ERK2:348:HN    ERK2:344:O        1.92   163.59    y
ERK2:349:HN    ERK2:345:O        2.39   143.15    y
ERK2:350:HN    ERK2:347:O        2.41   143.46    y
ERK2:352:HN    ERK2:349:O        1.97   161.09    y
ERK2:353:HN    ERK2:350:O        1.90   157.45    y
ERK2:356:HN    ERK2:353:O        2.04   165.51    y
